version="0.0.1"
tags={
	"Gameplay"
	"Fixes"
}
name="More Building Reboot Local"
supported_version="1.10.2"
path="C:/Users/Etshy/Documents/Paradox Interactive/Crusader Kings III/mod/More Building Reboot Local"